1D_PE_chain/transcript
# vsim work.tb_pe_chain_1d 
# Start time: 17:13:30 on Mar 31,2026
# Loading sv_std.std
# Loading work.tb_pe_chain_1d
# Loading work.pe_chain_1d
# Loading work.mac_pe
add wave *
add wave -position 0  sim:/tb_pe_chain_1d/DATA_W
add wave -position 1  sim:/tb_pe_chain_1d/ACC_W
add wave -position 2  sim:/tb_pe_chain_1d/NUM_PE
add wave -position 3  sim:/tb_pe_chain_1d/SIM_TIME
add wave -position 10  sim:/tb_pe_chain_1d/weight
add wave -position 11  sim:/tb_pe_chain_1d/pe_mul
add wave -position 12  sim:/tb_pe_chain_1d/pe_acc_sum
add wave -position 13  sim:/tb_pe_chain_1d/ref_data_pipe
add wave -position 14  sim:/tb_pe_chain_1d/ref_data_pipe_test
add wave -position 15  sim:/tb_pe_chain_1d/ref_sum
add wave -position end  sim:/tb_pe_chain_1d/ref_mul
run -all
# PASS!  [PE0] WP1 MUL match   : dut=0, ref=0, time=35 ns
# PASS!  [PE0] WP2 ACC_SUM match   : dut=0, ref=0, time=35 ns
# PASS!  [PE1] WP1 MUL match   : dut=0, ref=0, time=35 ns
# PASS!  [PE1] WP2 ACC_SUM match   : dut=0, ref=0, time=35 ns
# PASS!  [PE2] WP1 MUL match   : dut=0, ref=0, time=35 ns
# PASS!  [PE2] WP2 ACC_SUM match   : dut=0, ref=0, time=35 ns
# PASS!  [PE3] WP1 MUL match   : dut=0, ref=0, time=35 ns
# PASS!  [PE3] WP2 ACC_SUM match   : dut=0, ref=0, time=35 ns
# [TB] 1D PE Chain Time-based Random Stress START, duration = 3000 ns
# PASS!  [PE0] WP1 MUL match   : dut=0, ref=0, time=45 ns
# PASS!  [PE0] WP2 ACC_SUM match   : dut=0, ref=0, time=45 ns
# PASS!  [PE1] WP1 MUL match   : dut=0, ref=0, time=45 ns
# PASS!  [PE1] WP2 ACC_SUM match   : dut=0, ref=0, time=45 ns
# PASS!  [PE2] WP1 MUL match   : dut=0, ref=0, time=45 ns
# PASS!  [PE2] WP2 ACC_SUM match   : dut=0, ref=0, time=45 ns
# PASS!  [PE3] WP1 MUL match   : dut=0, ref=0, time=45 ns
# PASS!  [PE3] WP2 ACC_SUM match   : dut=0, ref=0, time=45 ns
# PASS!  [PE0] WP1 MUL match   : dut=122, ref=122, time=55 ns
# PASS!  [PE0] WP2 ACC_SUM match   : dut=0, ref=0, time=55 ns
# PASS!  [PE1] WP1 MUL match   : dut=0, ref=0, time=55 ns
# PASS!  [PE1] WP2 ACC_SUM match   : dut=0, ref=0, time=55 ns
# PASS!  [PE2] WP1 MUL match   : dut=0, ref=0, time=55 ns
# PASS!  [PE2] WP2 ACC_SUM match   : dut=0, ref=0, time=55 ns
# PASS!  [PE3] WP1 MUL match   : dut=0, ref=0, time=55 ns
# PASS!  [PE3] WP2 ACC_SUM match   : dut=0, ref=0, time=55 ns
# PASS!  [PE0] WP1 MUL match   : dut=164, ref=164, time=65 ns
# PASS!  [PE0] WP2 ACC_SUM match   : dut=0, ref=0, time=65 ns
# PASS!  [PE1] WP1 MUL match   : dut=244, ref=244, time=65 ns
# PASS!  [PE1] WP2 ACC_SUM match   : dut=0, ref=0, time=65 ns
# PASS!  [PE2] WP1 MUL match   : dut=0, ref=0, time=65 ns
# PASS!  [PE2] WP2 ACC_SUM match   : dut=0, ref=0, time=65 ns
# PASS!  [PE3] WP1 MUL match   : dut=0, ref=0, time=65 ns
# PASS!  [PE3] WP2 ACC_SUM match   : dut=0, ref=0, time=65 ns
# PASS!  [PE0] WP1 MUL match   : dut=65, ref=65, time=75 ns
# PASS!  [PE0] WP2 ACC_SUM match   : dut=0, ref=0, time=75 ns
# PASS!  [PE1] WP1 MUL match   : dut=328, ref=328, time=75 ns
# PASS!  [PE1] WP2 ACC_SUM match   : dut=0, ref=0, time=75 ns
# PASS!  [PE2] WP1 MUL match   : dut=366, ref=366, time=75 ns
# PASS!  [PE2] WP2 ACC_SUM match   : dut=0, ref=0, time=75 ns
# PASS!  [PE3] WP1 MUL match   : dut=0, ref=0, time=75 ns
# PASS!  [PE3] WP2 ACC_SUM match   : dut=0, ref=0, time=75 ns
# PASS!  [PE0] WP1 MUL match   : dut=205, ref=205, time=85 ns
# PASS!  [PE0] WP2 ACC_SUM match   : dut=65, ref=65, time=85 ns
# PASS!  [PE1] WP1 MUL match   : dut=130, ref=130, time=85 ns
# PASS!  [PE1] WP2 ACC_SUM match   : dut=328, ref=328, time=85 ns
# PASS!  [PE2] WP1 MUL match   : dut=492, ref=492, time=85 ns
# PASS!  [PE2] WP2 ACC_SUM match   : dut=366, ref=366, time=85 ns
# PASS!  [PE3] WP1 MUL match   : dut=488, ref=488, time=85 ns
# PASS!  [PE3] WP2 ACC_SUM match   : dut=0, ref=0, time=85 ns
# PASS!  [PE0] WP1 MUL match   : dut=184, ref=184, time=95 ns
# PASS!  [PE0] WP2 ACC_SUM match   : dut=270, ref=270, time=95 ns
# PASS!  [PE1] WP1 MUL match   : dut=410, ref=410, time=95 ns
# PASS!  [PE1] WP2 ACC_SUM match   : dut=458, ref=458, time=95 ns
# PASS!  [PE2] WP1 MUL match   : dut=195, ref=195, time=95 ns
# PASS!  [PE2] WP2 ACC_SUM match   : dut=858, ref=858, time=95 ns
# PASS!  [PE3] WP1 MUL match   : dut=656, ref=656, time=95 ns
# PASS!  [PE3] WP2 ACC_SUM match   : dut=488, ref=488, time=95 ns
# PASS!  [PE0] WP1 MUL match   : dut=24, ref=24, time=105 ns
# PASS!  [PE0] WP2 ACC_SUM match   : dut=270, ref=270, time=105 ns
# PASS!  [PE1] WP1 MUL match   : dut=368, ref=368, time=105 ns
# PASS!  [PE1] WP2 ACC_SUM match   : dut=458, ref=458, time=105 ns
# PASS!  [PE2] WP1 MUL match   : dut=615, ref=615, time=105 ns
# PASS!  [PE2] WP2 ACC_SUM match   : dut=858, ref=858, time=105 ns
# PASS!  [PE3] WP1 MUL match   : dut=260, ref=260, time=105 ns
# PASS!  [PE3] WP2 ACC_SUM match   : dut=488, ref=488, time=105 ns
# PASS!  [PE0] WP1 MUL match   : dut=48, ref=48, time=115 ns
# PASS!  [PE0] WP2 ACC_SUM match   : dut=0, ref=0, time=115 ns
# PASS!  [PE1] WP1 MUL match   : dut=48, ref=48, time=115 ns
# PASS!  [PE1] WP2 ACC_SUM match   : dut=0, ref=0, time=115 ns
# PASS!  [PE2] WP1 MUL match   : dut=552, ref=552, time=115 ns
# PASS!  [PE2] WP2 ACC_SUM match   : dut=0, ref=0, time=115 ns
# PASS!  [PE3] WP1 MUL match   : dut=820, ref=820, time=115 ns
# PASS!  [PE3] WP2 ACC_SUM match   : dut=0, ref=0, time=115 ns
# PASS!  [PE0] WP1 MUL match   : dut=184, ref=184, time=125 ns
# PASS!  [PE0] WP2 ACC_SUM match   : dut=48, ref=48, time=125 ns
# PASS!  [PE1] WP1 MUL match   : dut=96, ref=96, time=125 ns
# PASS!  [PE1] WP2 ACC_SUM match   : dut=48, ref=48, time=125 ns
# PASS!  [PE2] WP1 MUL match   : dut=72, ref=72, time=125 ns
# PASS!  [PE2] WP2 ACC_SUM match   : dut=552, ref=552, time=125 ns
# PASS!  [PE3] WP1 MUL match   : dut=736, ref=736, time=125 ns
# PASS!  [PE3] WP2 ACC_SUM match   : dut=820, ref=820, time=125 ns
# PASS!  [PE0] WP1 MUL match   : dut=75, ref=75, time=135 ns
# PASS!  [PE0] WP2 ACC_SUM match   : dut=232, ref=232, time=135 ns
# PASS!  [PE1] WP1 MUL match   : dut=368, ref=368, time=135 ns
# PASS!  [PE1] WP2 ACC_SUM match   : dut=144, ref=144, time=135 ns
# PASS!  [PE2] WP1 MUL match   : dut=144, ref=144, time=135 ns
# PASS!  [PE2] WP2 ACC_SUM match   : dut=624, ref=624, time=135 ns
# PASS!  [PE3] WP1 MUL match   : dut=96, ref=96, time=135 ns
# PASS!  [PE3] WP2 ACC_SUM match   : dut=1556, ref=1556, time=135 ns
# PASS!  [PE0] WP1 MUL match   : dut=210, ref=210, time=145 ns
# PASS!  [PE0] WP2 ACC_SUM match   : dut=232, ref=232, time=145 ns
# PASS!  [PE1] WP1 MUL match   : dut=150, ref=150, time=145 ns
# PASS!  [PE1] WP2 ACC_SUM match   : dut=144, ref=144, time=145 ns
# PASS!  [PE2] WP1 MUL match   : dut=552, ref=552, time=145 ns
# PASS!  [PE2] WP2 ACC_SUM match   : dut=624, ref=624, time=145 ns
# PASS!  [PE3] WP1 MUL match   : dut=192, ref=192, time=145 ns
# PASS!  [PE3] WP2 ACC_SUM match   : dut=1556, ref=1556, time=145 ns
# PASS!  [PE0] WP1 MUL match   : dut=108, ref=108, time=155 ns
# PASS!  [PE0] WP2 ACC_SUM match   : dut=442, ref=442, time=155 ns
# PASS!  [PE1] WP1 MUL match   : dut=420, ref=420, time=155 ns
# PASS!  [PE1] WP2 ACC_SUM match   : dut=294, ref=294, time=155 ns
# PASS!  [PE2] WP1 MUL match   : dut=225, ref=225, time=155 ns
# PASS!  [PE2] WP2 ACC_SUM match   : dut=1176, ref=1176, time=155 ns
# PASS!  [PE3] WP1 MUL match   : dut=736, ref=736, time=155 ns
# PASS!  [PE3] WP2 ACC_SUM match   : dut=1748, ref=1748, time=155 ns
# PASS!  [PE0] WP1 MUL match   : dut=43, ref=43, time=165 ns
# PASS!  [PE0] WP2 ACC_SUM match   : dut=550, ref=550, time=165 ns
# PASS!  [PE1] WP1 MUL match   : dut=216, ref=216, time=165 ns
# PASS!  [PE1] WP2 ACC_SUM match   : dut=714, ref=714, time=165 ns
# PASS!  [PE2] WP1 MUL match   : dut=630, ref=630, time=165 ns
# PASS!  [PE2] WP2 ACC_SUM match   : dut=1401, ref=1401, time=165 ns
# PASS!  [PE3] WP1 MUL match   : dut=300, ref=300, time=165 ns
# PASS!  [PE3] WP2 ACC_SUM match   : dut=2484, ref=2484, time=165 ns
# PASS!  [PE0] WP1 MUL match   : dut=226, ref=226, time=175 ns
# PASS!  [PE0] WP2 ACC_SUM match   : dut=593, ref=593, time=175 ns
# PASS!  [PE1] WP1 MUL match   : dut=86, ref=86, time=175 ns
# PASS!  [PE1] WP2 ACC_SUM match   : dut=930, ref=930, time=175 ns
# PASS!  [PE2] WP1 MUL match   : dut=324, ref=324, time=175 ns
# PASS!  [PE2] WP2 ACC_SUM match   : dut=2031, ref=2031, time=175 ns
# PASS!  [PE3] WP1 MUL match   : dut=840, ref=840, time=175 ns
# PASS!  [PE3] WP2 ACC_SUM match   : dut=2784, ref=2784, time=175 ns
# PASS!  [PE0] WP1 MUL match   : dut=171, ref=171, time=185 ns
# PASS!  [PE0] WP2 ACC_SUM match   : dut=593, ref=593, time=185 ns
# PASS!  [PE1] WP1 MUL match   : dut=452, ref=452, time=185 ns
# PASS!  [PE1] WP2 ACC_SUM match   : dut=930, ref=930, time=185 ns
# PASS!  [PE2] WP1 MUL match   : dut=129, ref=129, time=185 ns
# PASS!  [PE2] WP2 ACC_SUM match   : dut=2031, ref=2031, time=185 ns
# PASS!  [PE3] WP1 MUL match   : dut=432, ref=432, time=185 ns
# PASS!  [PE3] WP2 ACC_SUM match   : dut=2784, ref=2784, time=185 ns
# PASS!  [PE0] WP1 MUL match   : dut=22, ref=22, time=195 ns
# PASS!  [PE0] WP2 ACC_SUM match   : dut=764, ref=764, time=195 ns
# PASS!  [PE1] WP1 MUL match   : dut=342, ref=342, time=195 ns
# PASS!  [PE1] WP2 ACC_SUM match   : dut=1382, ref=1382, time=195 ns
# PASS!  [PE2] WP1 MUL match   : dut=678, ref=678, time=195 ns
# PASS!  [PE2] WP2 ACC_SUM match   : dut=2160, ref=2160, time=195 ns
# PASS!  [PE3] WP1 MUL match   : dut=172, ref=172, time=195 ns
# PASS!  [PE3] WP2 ACC_SUM match   : dut=3216, ref=3216, time=195 ns
# PASS!  [PE0] WP1 MUL match   : dut=74, ref=74, time=205 ns
# PASS!  [PE0] WP2 ACC_SUM match   : dut=0, ref=0, time=205 ns
# PASS!  [PE1] WP1 MUL match   : dut=44, ref=44, time=205 ns
# PASS!  [PE1] WP2 ACC_SUM match   : dut=0, ref=0, time=205 ns
# PASS!  [PE2] WP1 MUL match   : dut=513, ref=513, time=205 ns
# PASS!  [PE2] WP2 ACC_SUM match   : dut=0, ref=0, time=205 ns
# PASS!  [PE3] WP1 MUL match   : dut=904, ref=904, time=205 ns
# PASS!  [PE3] WP2 ACC_SUM match   : dut=0, ref=0, time=205 ns
# PASS!  [PE0] WP1 MUL match   : dut=149, ref=149, time=215 ns
# PASS!  [PE0] WP2 ACC_SUM match   : dut=0, ref=0, time=215 ns
# PASS!  [PE1] WP1 MUL match   : dut=148, ref=148, time=215 ns
# PASS!  [PE1] WP2 ACC_SUM match   : dut=0, ref=0, time=215 ns
# PASS!  [PE2] WP1 MUL match   : dut=66, ref=66, time=215 ns
# PASS!  [PE2] WP2 ACC_SUM match   : dut=0, ref=0, time=215 ns
# PASS!  [PE3] WP1 MUL match   : dut=684, ref=684, time=215 ns
# PASS!  [PE3] WP2 ACC_SUM match   : dut=0, ref=0, time=215 ns
# PASS!  [PE0] WP1 MUL match   : dut=15, ref=15, time=225 ns
# PASS!  [PE0] WP2 ACC_SUM match   : dut=0, ref=0, time=225 ns
# PASS!  [PE1] WP1 MUL match   : dut=298, ref=298, time=225 ns
# PASS!  [PE1] WP2 ACC_SUM match   : dut=0, ref=0, time=225 ns
# PASS!  [PE2] WP1 MUL match   : dut=222, ref=222, time=225 ns
# PASS!  [PE2] WP2 ACC_SUM match   : dut=0, ref=0, time=225 ns
# PASS!  [PE3] WP1 MUL match   : dut=88, ref=88, time=225 ns
# PASS!  [PE3] WP2 ACC_SUM match   : dut=0, ref=0, time=225 ns
# PASS!  [PE0] WP1 MUL match   : dut=16, ref=16, time=235 ns
# PASS!  [PE0] WP2 ACC_SUM match   : dut=0, ref=0, time=235 ns
# PASS!  [PE1] WP1 MUL match   : dut=30, ref=30, time=235 ns
# PASS!  [PE1] WP2 ACC_SUM match   : dut=0, ref=0, time=235 ns
# PASS!  [PE2] WP1 MUL match   : dut=447, ref=447, time=235 ns
# PASS!  [PE2] WP2 ACC_SUM match   : dut=0, ref=0, time=235 ns
# PASS!  [PE3] WP1 MUL match   : dut=296, ref=296, time=235 ns
# PASS!  [PE3] WP2 ACC_SUM match   : dut=0, ref=0, time=235 ns
# PASS!  [PE0] WP1 MUL match   : dut=46, ref=46, time=245 ns
# PASS!  [PE0] WP2 ACC_SUM match   : dut=16, ref=16, time=245 ns
# PASS!  [PE1] WP1 MUL match   : dut=32, ref=32, time=245 ns
# PASS!  [PE1] WP2 ACC_SUM match   : dut=30, ref=30, time=245 ns
# PASS!  [PE2] WP1 MUL match   : dut=45, ref=45, time=245 ns
# PASS!  [PE2] WP2 ACC_SUM match   : dut=447, ref=447, time=245 ns
# PASS!  [PE3] WP1 MUL match   : dut=596, ref=596, time=245 ns
# PASS!  [PE3] WP2 ACC_SUM match   : dut=296, ref=296, time=245 ns
# PASS!  [PE0] WP1 MUL match   : dut=31, ref=31, time=255 ns
# PASS!  [PE0] WP2 ACC_SUM match   : dut=16, ref=16, time=255 ns
# PASS!  [PE1] WP1 MUL match   : dut=92, ref=92, time=255 ns
# PASS!  [PE1] WP2 ACC_SUM match   : dut=30, ref=30, time=255 ns
# PASS!  [PE2] WP1 MUL match   : dut=48, ref=48, time=255 ns
# PASS!  [PE2] WP2 ACC_SUM match   : dut=447, ref=447, time=255 ns
# PASS!  [PE3] WP1 MUL match   : dut=60, ref=60, time=255 ns
# PASS!  [PE3] WP2 ACC_SUM match   : dut=296, ref=296, time=255 ns
# PASS!  [PE0] WP1 MUL match   : dut=100, ref=100, time=265 ns
# PASS!  [PE0] WP2 ACC_SUM match   : dut=16, ref=16, time=265 ns
# PASS!  [PE1] WP1 MUL match   : dut=62, ref=62, time=265 ns
# PASS!  [PE1] WP2 ACC_SUM match   : dut=30, ref=30, time=265 ns
# PASS!  [PE2] WP1 MUL match   : dut=138, ref=138, time=265 ns
# PASS!  [PE2] WP2 ACC_SUM match   : dut=447, ref=447, time=265 ns
# PASS!  [PE3] WP1 MUL match   : dut=64, ref=64, time=265 ns
# PASS!  [PE3] WP2 ACC_SUM match   : dut=296, ref=296, time=265 ns
# PASS!  [PE0] WP1 MUL match   : dut=214, ref=214, time=275 ns
# PASS!  [PE0] WP2 ACC_SUM match   : dut=116, ref=116, time=275 ns
# PASS!  [PE1] WP1 MUL match   : dut=200, ref=200, time=275 ns
# PASS!  [PE1] WP2 ACC_SUM match   : dut=92, ref=92, time=275 ns
# PASS!  [PE2] WP1 MUL match   : dut=93, ref=93, time=275 ns
# PASS!  [PE2] WP2 ACC_SUM match   : dut=585, ref=585, time=275 ns
# PASS!  [PE3] WP1 MUL match   : dut=184, ref=184, time=275 ns
# PASS!  [PE3] WP2 ACC_SUM match   : dut=360, ref=360, time=275 ns
# PASS!  [PE0] WP1 MUL match   : dut=93, ref=93, time=285 ns
# PASS!  [PE0] WP2 ACC_SUM match   : dut=330, ref=330, time=285 ns
# PASS!  [PE1] WP1 MUL match   : dut=428, ref=428, time=285 ns
# PASS!  [PE1] WP2 ACC_SUM match   : dut=292, ref=292, time=285 ns
# PASS!  [PE2] WP1 MUL match   : dut=300, ref=300, time=285 ns
# PASS!  [PE2] WP2 ACC_SUM match   : dut=678, ref=678, time=285 ns
# PASS!  [PE3] WP1 MUL match   : dut=124, ref=124, time=285 ns
# PASS!  [PE3] WP2 ACC_SUM match   : dut=544, ref=544, time=285 ns
# PASS!  [PE0] WP1 MUL match   : dut=81, ref=81, time=295 ns
# PASS!  [PE0] WP2 ACC_SUM match   : dut=330, ref=330, time=295 ns
# PASS!  [PE1] WP1 MUL match   : dut=186, ref=186, time=295 ns
# PASS!  [PE1] WP2 ACC_SUM match   : dut=292, ref=292, time=295 ns
# PASS!  [PE2] WP1 MUL match   : dut=642, ref=642, time=295 ns
# PASS!  [PE2] WP2 ACC_SUM match   : dut=678, ref=678, time=295 ns
# PASS!  [PE3] WP1 MUL match   : dut=400, ref=400, time=295 ns
# PASS!  [PE3] WP2 ACC_SUM match   : dut=544, ref=544, time=295 ns
# PASS!  [PE0] WP1 MUL match   : dut=105, ref=105, time=305 ns
# PASS!  [PE0] WP2 ACC_SUM match   : dut=0, ref=0, time=305 ns
# PASS!  [PE1] WP1 MUL match   : dut=162, ref=162, time=305 ns
# PASS!  [PE1] WP2 ACC_SUM match   : dut=0, ref=0, time=305 ns
# PASS!  [PE2] WP1 MUL match   : dut=279, ref=279, time=305 ns
# PASS!  [PE2] WP2 ACC_SUM match   : dut=0, ref=0, time=305 ns
# PASS!  [PE3] WP1 MUL match   : dut=856, ref=856, time=305 ns
# PASS!  [PE3] WP2 ACC_SUM match   : dut=0, ref=0, time=305 ns
# PASS!  [PE0] WP1 MUL match   : dut=91, ref=91, time=315 ns
# PASS!  [PE0] WP2 ACC_SUM match   : dut=105, ref=105, time=315 ns
# PASS!  [PE1] WP1 MUL match   : dut=210, ref=210, time=315 ns
# PASS!  [PE1] WP2 ACC_SUM match   : dut=162, ref=162, time=315 ns
# PASS!  [PE2] WP1 MUL match   : dut=243, ref=243, time=315 ns
# PASS!  [PE2] WP2 ACC_SUM match   : dut=279, ref=279, time=315 ns
# PASS!  [PE3] WP1 MUL match   : dut=372, ref=372, time=315 ns
# PASS!  [PE3] WP2 ACC_SUM match   : dut=856, ref=856, time=315 ns
# PASS!  [PE0] WP1 MUL match   : dut=113, ref=113, time=325 ns
# PASS!  [PE0] WP2 ACC_SUM match   : dut=196, ref=196, time=325 ns
# PASS!  [PE1] WP1 MUL match   : dut=182, ref=182, time=325 ns
# PASS!  [PE1] WP2 ACC_SUM match   : dut=372, ref=372, time=325 ns
# PASS!  [PE2] WP1 MUL match   : dut=315, ref=315, time=325 ns
# PASS!  [PE2] WP2 ACC_SUM match   : dut=522, ref=522, time=325 ns
# PASS!  [PE3] WP1 MUL match   : dut=324, ref=324, time=325 ns
# PASS!  [PE3] WP2 ACC_SUM match   : dut=1228, ref=1228, time=325 ns
# PASS!  [PE0] WP1 MUL match   : dut=68, ref=68, time=335 ns
# PASS!  [PE0] WP2 ACC_SUM match   : dut=196, ref=196, time=335 ns
# PASS!  [PE1] WP1 MUL match   : dut=226, ref=226, time=335 ns
# PASS!  [PE1] WP2 ACC_SUM match   : dut=372, ref=372, time=335 ns
# PASS!  [PE2] WP1 MUL match   : dut=273, ref=273, time=335 ns
# PASS!  [PE2] WP2 ACC_SUM match   : dut=522, ref=522, time=335 ns
# PASS!  [PE3] WP1 MUL match   : dut=420, ref=420, time=335 ns
# PASS!  [PE3] WP2 ACC_SUM match   : dut=1228, ref=1228, time=335 ns
# PASS!  [PE0] WP1 MUL match   : dut=127, ref=127, time=345 ns
# PASS!  [PE0] WP2 ACC_SUM match   : dut=264, ref=264, time=345 ns
# PASS!  [PE1] WP1 MUL match   : dut=136, ref=136, time=345 ns
# PASS!  [PE1] WP2 ACC_SUM match   : dut=598, ref=598, time=345 ns
# PASS!  [PE2] WP1 MUL match   : dut=339, ref=339, time=345 ns
# PASS!  [PE2] WP2 ACC_SUM match   : dut=795, ref=795, time=345 ns
# PASS!  [PE3] WP1 MUL match   : dut=364, ref=364, time=345 ns
# PASS!  [PE3] WP2 ACC_SUM match   : dut=1648, ref=1648, time=345 ns
# PASS!  [PE0] WP1 MUL match   : dut=111, ref=111, time=355 ns
# PASS!  [PE0] WP2 ACC_SUM match   : dut=391, ref=391, time=355 ns
# PASS!  [PE1] WP1 MUL match   : dut=254, ref=254, time=355 ns
# PASS!  [PE1] WP2 ACC_SUM match   : dut=734, ref=734, time=355 ns
# PASS!  [PE2] WP1 MUL match   : dut=204, ref=204, time=355 ns
# PASS!  [PE2] WP2 ACC_SUM match   : dut=1134, ref=1134, time=355 ns
# PASS!  [PE3] WP1 MUL match   : dut=452, ref=452, time=355 ns
# PASS!  [PE3] WP2 ACC_SUM match   : dut=2012, ref=2012, time=355 ns
# PASS!  [PE0] WP1 MUL match   : dut=39, ref=39, time=365 ns
# PASS!  [PE0] WP2 ACC_SUM match   : dut=502, ref=502, time=365 ns
# PASS!  [PE1] WP1 MUL match   : dut=222, ref=222, time=365 ns
# PASS!  [PE1] WP2 ACC_SUM match   : dut=988, ref=988, time=365 ns
# PASS!  [PE2] WP1 MUL match   : dut=381, ref=381, time=365 ns
# PASS!  [PE2] WP2 ACC_SUM match   : dut=1338, ref=1338, time=365 ns
# PASS!  [PE3] WP1 MUL match   : dut=272, ref=272, time=365 ns
# PASS!  [PE3] WP2 ACC_SUM match   : dut=2464, ref=2464, time=365 ns
# PASS!  [PE0] WP1 MUL match   : dut=63, ref=63, time=375 ns
# PASS!  [PE0] WP2 ACC_SUM match   : dut=502, ref=502, time=375 ns
# PASS!  [PE1] WP1 MUL match   : dut=78, ref=78, time=375 ns
# PASS!  [PE1] WP2 ACC_SUM match   : dut=988, ref=988, time=375 ns
# PASS!  [PE2] WP1 MUL match   : dut=333, ref=333, time=375 ns
# PASS!  [PE2] WP2 ACC_SUM match   : dut=1338, ref=1338, time=375 ns
# PASS!  [PE3] WP1 MUL match   : dut=508, ref=508, time=375 ns
# PASS!  [PE3] WP2 ACC_SUM match   : dut=2464, ref=2464, time=375 ns
# PASS!  [PE0] WP1 MUL match   : dut=100, ref=100, time=385 ns
# PASS!  [PE0] WP2 ACC_SUM match   : dut=565, ref=565, time=385 ns
# PASS!  [PE1] WP1 MUL match   : dut=126, ref=126, time=385 ns
# PASS!  [PE1] WP2 ACC_SUM match   : dut=1066, ref=1066, time=385 ns
# PASS!  [PE2] WP1 MUL match   : dut=117, ref=117, time=385 ns
# PASS!  [PE2] WP2 ACC_SUM match   : dut=1671, ref=1671, time=385 ns
# PASS!  [PE3] WP1 MUL match   : dut=444, ref=444, time=385 ns
# PASS!  [PE3] WP2 ACC_SUM match   : dut=2972, ref=2972, time=385 ns
# PASS!  [PE0] WP1 MUL match   : dut=161, ref=161, time=395 ns
# PASS!  [PE0] WP2 ACC_SUM match   : dut=0, ref=0, time=395 ns
# PASS!  [PE1] WP1 MUL match   : dut=200, ref=200, time=395 ns
# PASS!  [PE1] WP2 ACC_SUM match   : dut=0, ref=0, time=395 ns
# PASS!  [PE2] WP1 MUL match   : dut=189, ref=189, time=395 ns
# PASS!  [PE2] WP2 ACC_SUM match   : dut=0, ref=0, time=395 ns
# PASS!  [PE3] WP1 MUL match   : dut=156, ref=156, time=395 ns
# PASS!  [PE3] WP2 ACC_SUM match   : dut=0, ref=0, time=395 ns
# PASS!  [PE0] WP1 MUL match   : dut=217, ref=217, time=405 ns
# PASS!  [PE0] WP2 ACC_SUM match   : dut=0, ref=0, time=405 ns
# PASS!  [PE1] WP1 MUL match   : dut=322, ref=322, time=405 ns
# PASS!  [PE1] WP2 ACC_SUM match   : dut=0, ref=0, time=405 ns
# PASS!  [PE2] WP1 MUL match   : dut=300, ref=300, time=405 ns
# PASS!  [PE2] WP2 ACC_SUM match   : dut=0, ref=0, time=405 ns
# PASS!  [PE3] WP1 MUL match   : dut=252, ref=252, time=405 ns
# PASS!  [PE3] WP2 ACC_SUM match   : dut=0, ref=0, time=405 ns
# PASS!  [PE0] WP1 MUL match   : dut=57, ref=57, time=415 ns
# PASS!  [PE0] WP2 ACC_SUM match   : dut=0, ref=0, time=415 ns
# PASS!  [PE1] WP1 MUL match   : dut=434, ref=434, time=415 ns
# PASS!  [PE1] WP2 ACC_SUM match   : dut=0, ref=0, time=415 ns
# PASS!  [PE2] WP1 MUL match   : dut=483, ref=483, time=415 ns
# PASS!  [PE2] WP2 ACC_SUM match   : dut=0, ref=0, time=415 ns
# PASS!  [PE3] WP1 MUL match   : dut=400, ref=400, time=415 ns
# PASS!  [PE3] WP2 ACC_SUM match   : dut=0, ref=0, time=415 ns
# PASS!  [PE0] WP1 MUL match   : dut=58, ref=58, time=425 ns
# PASS!  [PE0] WP2 ACC_SUM match   : dut=57, ref=57, time=425 ns
# PASS!  [PE1] WP1 MUL match   : dut=114, ref=114, time=425 ns
# PASS!  [PE1] WP2 ACC_SUM match   : dut=434, ref=434, time=425 ns
# PASS!  [PE2] WP1 MUL match   : dut=651, ref=651, time=425 ns
# PASS!  [PE2] WP2 ACC_SUM match   : dut=483, ref=483, time=425 ns
# PASS!  [PE3] WP1 MUL match   : dut=644, ref=644, time=425 ns
# PASS!  [PE3] WP2 ACC_SUM match   : dut=400, ref=400, time=425 ns
# PASS!  [PE0] WP1 MUL match   : dut=172, ref=172, time=435 ns
# PASS!  [PE0] WP2 ACC_SUM match   : dut=57, ref=57, time=435 ns
# PASS!  [PE1] WP1 MUL match   : dut=116, ref=116, time=435 ns
# PASS!  [PE1] WP2 ACC_SUM match   : dut=434, ref=434, time=435 ns
# PASS!  [PE2] WP1 MUL match   : dut=171, ref=171, time=435 ns
# PASS!  [PE2] WP2 ACC_SUM match   : dut=483, ref=483, time=435 ns
# PASS!  [PE3] WP1 MUL match   : dut=868, ref=868, time=435 ns
# PASS!  [PE3] WP2 ACC_SUM match   : dut=400, ref=400, time=435 ns
# PASS!  [PE0] WP1 MUL match   : dut=64, ref=64, time=445 ns
# PASS!  [PE0] WP2 ACC_SUM match   : dut=57, ref=57, time=445 ns
# PASS!  [PE1] WP1 MUL match   : dut=344, ref=344, time=445 ns
# PASS!  [PE1] WP2 ACC_SUM match   : dut=434, ref=434, time=445 ns
# PASS!  [PE2] WP1 MUL match   : dut=174, ref=174, time=445 ns
# PASS!  [PE2] WP2 ACC_SUM match   : dut=483, ref=483, time=445 ns
# PASS!  [PE3] WP1 MUL match   : dut=228, ref=228, time=445 ns
# PASS!  [PE3] WP2 ACC_SUM match   : dut=400, ref=400, time=445 ns
# PASS!  [PE0] WP1 MUL match   : dut=249, ref=249, time=455 ns
# PASS!  [PE0] WP2 ACC_SUM match   : dut=121, ref=121, time=455 ns
# PASS!  [PE1] WP1 MUL match   : dut=128, ref=128, time=455 ns
# PASS!  [PE1] WP2 ACC_SUM match   : dut=778, ref=778, time=455 ns
# PASS!  [PE2] WP1 MUL match   : dut=516, ref=516, time=455 ns
# PASS!  [PE2] WP2 ACC_SUM match   : dut=657, ref=657, time=455 ns
# PASS!  [PE3] WP1 MUL match   : dut=232, ref=232, time=455 ns
# PASS!  [PE3] WP2 ACC_SUM match   : dut=628, ref=628, time=455 ns
# PASS!  [PE0] WP1 MUL match   : dut=178, ref=178, time=465 ns
# PASS!  [PE0] WP2 ACC_SUM match   : dut=370, ref=370, time=465 ns
# PASS!  [PE1] WP1 MUL match   : dut=498, ref=498, time=465 ns
# PASS!  [PE1] WP2 ACC_SUM match   : dut=906, ref=906, time=465 ns
# PASS!  [PE2] WP1 MUL match   : dut=192, ref=192, time=465 ns
# PASS!  [PE2] WP2 ACC_SUM match   : dut=1173, ref=1173, time=465 ns
# PASS!  [PE3] WP1 MUL match   : dut=688, ref=688, time=465 ns
# PASS!  [PE3] WP2 ACC_SUM match   : dut=860, ref=860, time=465 ns
# PASS!  [PE0] WP1 MUL match   : dut=12, ref=12, time=475 ns
# PASS!  [PE0] WP2 ACC_SUM match   : dut=0, ref=0, time=475 ns
# PASS!  [PE1] WP1 MUL match   : dut=356, ref=356, time=475 ns
# PASS!  [PE1] WP2 ACC_SUM match   : dut=0, ref=0, time=475 ns
# PASS!  [PE2] WP1 MUL match   : dut=747, ref=747, time=475 ns
# PASS!  [PE2] WP2 ACC_SUM match   : dut=0, ref=0, time=475 ns
# PASS!  [PE3] WP1 MUL match   : dut=256, ref=256, time=475 ns
# PASS!  [PE3] WP2 ACC_SUM match   : dut=0, ref=0, time=475 ns
# PASS!  [PE0] WP1 MUL match   : dut=232, ref=232, time=485 ns
